%YAML 1.1
%TAG !u! tag:unity3d.com,2011:
--- !u!114 &11400000
MonoBehaviour:
  m_ObjectHideFlags: 0
  m_CorrespondingSourceObject: {fileID: 0}
  m_PrefabInstance: {fileID: 0}
  m_PrefabAsset: {fileID: 0}
  m_GameObject: {fileID: 0}
  m_Enabled: 1
  m_EditorHideFlags: 0
  m_Script: {fileID: 11500000, guid: 05a95a5be0cf80c4396586c89391da85, type: 3}
  m_Name: Island_Wave3
  m_EditorClassIdentifier: 
  enemiesToSpawn:
  - {fileID: 744752561438990698, guid: 9a4195755b0b79c4c87f41852c750e6c, type: 3}
  - {fileID: 744752561438990698, guid: 9a4195755b0b79c4c87f41852c750e6c, type: 3}
  - {fileID: 744752561438990698, guid: 9a4195755b0b79c4c87f41852c750e6c, type: 3}
  - {fileID: 3826484909456209831, guid: ee0c482c8aad23f43b8cea668d88113a, type: 3}
  - {fileID: 3826484909456209831, guid: ee0c482c8aad23f43b8cea668d88113a, type: 3}
  - {fileID: 3826484909456209831, guid: ee0c482c8aad23f43b8cea668d88113a, type: 3}
  - {fileID: 674162833763402952, guid: 276a2e3edcd9f46469c40b982561320c, type: 3}
  - {fileID: 674162833763402952, guid: 276a2e3edcd9f46469c40b982561320c, type: 3}
  - {fileID: 164756822463894766, guid: aefca57f1dee34f4685af83f1ddd1ff0, type: 3}
  - {fileID: 4248326555870015197, guid: c41a7259c6aa73e428879125f4071098, type: 3}
  - {fileID: 4248326555870015197, guid: c41a7259c6aa73e428879125f4071098, type: 3}
  - {fileID: 4248326555870015197, guid: c41a7259c6aa73e428879125f4071098, type: 3}
  moneyReceived: 350
