%YAML 1.1
%TAG !u! tag:unity3d.com,2011:
--- !u!1001 &4263038647834185401
PrefabInstance:
  m_ObjectHideFlags: 0
  serializedVersion: 2
  m_Modification:
    m_TransformParent: {fileID: 0}
    m_Modifications:
    - target: {fileID: 1046959505511790676, guid: 53ada69b610dbc04b8b64a8dba607d85,
        type: 3}
      propertyPath: m_textInfo.characterCount
      value: 9
      objectReference: {fileID: 0}
    - target: {fileID: 1046959505511790676, guid: 53ada69b610dbc04b8b64a8dba607d85,
        type: 3}
      propertyPath: m_textInfo.spaceCount
      value: 3
      objectReference: {fileID: 0}
    - target: {fileID: 1046959505511790676, guid: 53ada69b610dbc04b8b64a8dba607d85,
        type: 3}
      propertyPath: m_textInfo.wordCount
      value: 2
      objectReference: {fileID: 0}
    - target: {fileID: 1046959505511790676, guid: 53ada69b610dbc04b8b64a8dba607d85,
        type: 3}
      propertyPath: m_textInfo.lineCount
      value: 1
      objectReference: {fileID: 0}
    - target: {fileID: 1046959505511790676, guid: 53ada69b610dbc04b8b64a8dba607d85,
        type: 3}
      propertyPath: m_textInfo.pageCount
      value: 1
      objectReference: {fileID: 0}
    - target: {fileID: 1046959505511790676, guid: 53ada69b610dbc04b8b64a8dba607d85,
        type: 3}
      propertyPath: m_fontColor.r
      value: 0.7924528
      objectReference: {fileID: 0}
    - target: {fileID: 1046959505511790676, guid: 53ada69b610dbc04b8b64a8dba607d85,
        type: 3}
      propertyPath: m_fontColor.g
      value: 0.69102156
      objectReference: {fileID: 0}
    - target: {fileID: 1046959505511790676, guid: 53ada69b610dbc04b8b64a8dba607d85,
        type: 3}
      propertyPath: m_fontColor.b
      value: 0.6578854
      objectReference: {fileID: 0}
    - target: {fileID: 1046959505511790676, guid: 53ada69b610dbc04b8b64a8dba607d85,
        type: 3}
      propertyPath: m_fontColor32.rgba
      value: 4289179850
      objectReference: {fileID: 0}
    - target: {fileID: 2611618430399038526, guid: 53ada69b610dbc04b8b64a8dba607d85,
        type: 3}
      propertyPath: m_Color.r
      value: 0.7490196
      objectReference: {fileID: 0}
    - target: {fileID: 2611618430399038526, guid: 53ada69b610dbc04b8b64a8dba607d85,
        type: 3}
      propertyPath: m_Color.g
      value: 0.37254903
      objectReference: {fileID: 0}
    - target: {fileID: 2611618430399038526, guid: 53ada69b610dbc04b8b64a8dba607d85,
        type: 3}
      propertyPath: m_Color.b
      value: 0.019607844
      objectReference: {fileID: 0}
    - target: {fileID: 2611618430445554465, guid: 53ada69b610dbc04b8b64a8dba607d85,
        type: 3}
      propertyPath: m_Color.r
      value: 0.7490196
      objectReference: {fileID: 0}
    - target: {fileID: 2611618430445554465, guid: 53ada69b610dbc04b8b64a8dba607d85,
        type: 3}
      propertyPath: m_Color.g
      value: 0.37254903
      objectReference: {fileID: 0}
    - target: {fileID: 2611618430445554465, guid: 53ada69b610dbc04b8b64a8dba607d85,
        type: 3}
      propertyPath: m_Color.b
      value: 0.019607844
      objectReference: {fileID: 0}
    - target: {fileID: 2611618430445554466, guid: 53ada69b610dbc04b8b64a8dba607d85,
        type: 3}
      propertyPath: m_AnchorMax.y
      value: 0
      objectReference: {fileID: 0}
    - target: {fileID: 2611618431517460701, guid: 53ada69b610dbc04b8b64a8dba607d85,
        type: 3}
      propertyPath: energyType
      value: 0
      objectReference: {fileID: 0}
    - target: {fileID: 2611618431517460702, guid: 53ada69b610dbc04b8b64a8dba607d85,
        type: 3}
      propertyPath: m_LocalPosition.x
      value: 0
      objectReference: {fileID: 0}
    - target: {fileID: 2611618431517460702, guid: 53ada69b610dbc04b8b64a8dba607d85,
        type: 3}
      propertyPath: m_LocalPosition.y
      value: 0
      objectReference: {fileID: 0}
    - target: {fileID: 2611618431517460702, guid: 53ada69b610dbc04b8b64a8dba607d85,
        type: 3}
      propertyPath: m_LocalPosition.z
      value: 0
      objectReference: {fileID: 0}
    - target: {fileID: 2611618431517460702, guid: 53ada69b610dbc04b8b64a8dba607d85,
        type: 3}
      propertyPath: m_LocalRotation.x
      value: -0
      objectReference: {fileID: 0}
    - target: {fileID: 2611618431517460702, guid: 53ada69b610dbc04b8b64a8dba607d85,
        type: 3}
      propertyPath: m_LocalRotation.y
      value: -0
      objectReference: {fileID: 0}
    - target: {fileID: 2611618431517460702, guid: 53ada69b610dbc04b8b64a8dba607d85,
        type: 3}
      propertyPath: m_LocalRotation.z
      value: -0
      objectReference: {fileID: 0}
    - target: {fileID: 2611618431517460702, guid: 53ada69b610dbc04b8b64a8dba607d85,
        type: 3}
      propertyPath: m_LocalRotation.w
      value: 1
      objectReference: {fileID: 0}
    - target: {fileID: 2611618431517460702, guid: 53ada69b610dbc04b8b64a8dba607d85,
        type: 3}
      propertyPath: m_RootOrder
      value: 0
      objectReference: {fileID: 0}
    - target: {fileID: 2611618431517460702, guid: 53ada69b610dbc04b8b64a8dba607d85,
        type: 3}
      propertyPath: m_LocalEulerAnglesHint.x
      value: 0
      objectReference: {fileID: 0}
    - target: {fileID: 2611618431517460702, guid: 53ada69b610dbc04b8b64a8dba607d85,
        type: 3}
      propertyPath: m_LocalEulerAnglesHint.y
      value: 0
      objectReference: {fileID: 0}
    - target: {fileID: 2611618431517460702, guid: 53ada69b610dbc04b8b64a8dba607d85,
        type: 3}
      propertyPath: m_LocalEulerAnglesHint.z
      value: 0
      objectReference: {fileID: 0}
    - target: {fileID: 2611618431517460702, guid: 53ada69b610dbc04b8b64a8dba607d85,
        type: 3}
      propertyPath: m_AnchoredPosition.x
      value: -498
      objectReference: {fileID: 0}
    - target: {fileID: 2611618431517460702, guid: 53ada69b610dbc04b8b64a8dba607d85,
        type: 3}
      propertyPath: m_AnchoredPosition.y
      value: 437
      objectReference: {fileID: 0}
    - target: {fileID: 2611618431517460702, guid: 53ada69b610dbc04b8b64a8dba607d85,
        type: 3}
      propertyPath: m_SizeDelta.x
      value: 750
      objectReference: {fileID: 0}
    - target: {fileID: 2611618431517460702, guid: 53ada69b610dbc04b8b64a8dba607d85,
        type: 3}
      propertyPath: m_SizeDelta.y
      value: 50
      objectReference: {fileID: 0}
    - target: {fileID: 2611618431517460702, guid: 53ada69b610dbc04b8b64a8dba607d85,
        type: 3}
      propertyPath: m_AnchorMin.x
      value: 0.5
      objectReference: {fileID: 0}
    - target: {fileID: 2611618431517460702, guid: 53ada69b610dbc04b8b64a8dba607d85,
        type: 3}
      propertyPath: m_AnchorMin.y
      value: 0.5
      objectReference: {fileID: 0}
    - target: {fileID: 2611618431517460702, guid: 53ada69b610dbc04b8b64a8dba607d85,
        type: 3}
      propertyPath: m_AnchorMax.x
      value: 0.5
      objectReference: {fileID: 0}
    - target: {fileID: 2611618431517460702, guid: 53ada69b610dbc04b8b64a8dba607d85,
        type: 3}
      propertyPath: m_AnchorMax.y
      value: 0.5
      objectReference: {fileID: 0}
    - target: {fileID: 2611618431517460702, guid: 53ada69b610dbc04b8b64a8dba607d85,
        type: 3}
      propertyPath: m_Pivot.x
      value: 0.5
      objectReference: {fileID: 0}
    - target: {fileID: 2611618431517460702, guid: 53ada69b610dbc04b8b64a8dba607d85,
        type: 3}
      propertyPath: m_Pivot.y
      value: 0.5
      objectReference: {fileID: 0}
    - target: {fileID: 2611618431517460703, guid: 53ada69b610dbc04b8b64a8dba607d85,
        type: 3}
      propertyPath: m_Name
      value: FuelEnergySlider
      objectReference: {fileID: 0}
    - target: {fileID: 4908416714445149640, guid: 53ada69b610dbc04b8b64a8dba607d85,
        type: 3}
      propertyPath: m_SizeDelta.x
      value: 27.5
      objectReference: {fileID: 0}
    - target: {fileID: 4908416714445149640, guid: 53ada69b610dbc04b8b64a8dba607d85,
        type: 3}
      propertyPath: m_SizeDelta.y
      value: 27.5
      objectReference: {fileID: 0}
    - target: {fileID: 7143020055638588124, guid: 53ada69b610dbc04b8b64a8dba607d85,
        type: 3}
      propertyPath: m_Sprite
      value: 
      objectReference: {fileID: 21300000, guid: bd2e062f3d51de54392be45c9bce48b5,
        type: 3}
    - target: {fileID: 7143020055638588124, guid: 53ada69b610dbc04b8b64a8dba607d85,
        type: 3}
      propertyPath: m_Color.r
      value: 0.7490196
      objectReference: {fileID: 0}
    - target: {fileID: 7143020055638588124, guid: 53ada69b610dbc04b8b64a8dba607d85,
        type: 3}
      propertyPath: m_Color.g
      value: 0.37254903
      objectReference: {fileID: 0}
    - target: {fileID: 7143020055638588124, guid: 53ada69b610dbc04b8b64a8dba607d85,
        type: 3}
      propertyPath: m_Color.b
      value: 0.019607844
      objectReference: {fileID: 0}
    m_RemovedComponents: []
  m_SourcePrefab: {fileID: 100100000, guid: 53ada69b610dbc04b8b64a8dba607d85, type: 3}
