%YAML 1.1
%TAG !u! tag:unity3d.com,2011:
--- !u!1001 &4540404248603870763
PrefabInstance:
  m_ObjectHideFlags: 0
  serializedVersion: 2
  m_Modification:
    m_TransformParent: {fileID: 0}
    m_Modifications:
    - target: {fileID: 2611618430445554466, guid: 53ada69b610dbc04b8b64a8dba607d85,
        type: 3}
      propertyPath: m_AnchorMax.y
      value: 0
      objectReference: {fileID: 0}
    - target: {fileID: 2611618431517460702, guid: 53ada69b610dbc04b8b64a8dba607d85,
        type: 3}
      propertyPath: m_LocalPosition.x
      value: 0
      objectReference: {fileID: 0}
    - target: {fileID: 2611618431517460702, guid: 53ada69b610dbc04b8b64a8dba607d85,
        type: 3}
      propertyPath: m_LocalPosition.y
      value: 0
      objectReference: {fileID: 0}
    - target: {fileID: 2611618431517460702, guid: 53ada69b610dbc04b8b64a8dba607d85,
        type: 3}
      propertyPath: m_LocalPosition.z
      value: 0
      objectReference: {fileID: 0}
    - target: {fileID: 2611618431517460702, guid: 53ada69b610dbc04b8b64a8dba607d85,
        type: 3}
      propertyPath: m_LocalRotation.x
      value: -0
      objectReference: {fileID: 0}
    - target: {fileID: 2611618431517460702, guid: 53ada69b610dbc04b8b64a8dba607d85,
        type: 3}
      propertyPath: m_LocalRotation.y
      value: -0
      objectReference: {fileID: 0}
    - target: {fileID: 2611618431517460702, guid: 53ada69b610dbc04b8b64a8dba607d85,
        type: 3}
      propertyPath: m_LocalRotation.z
      value: -0
      objectReference: {fileID: 0}
    - target: {fileID: 2611618431517460702, guid: 53ada69b610dbc04b8b64a8dba607d85,
        type: 3}
      propertyPath: m_LocalRotation.w
      value: 1
      objectReference: {fileID: 0}
    - target: {fileID: 2611618431517460702, guid: 53ada69b610dbc04b8b64a8dba607d85,
        type: 3}
      propertyPath: m_RootOrder
      value: 0
      objectReference: {fileID: 0}
    - target: {fileID: 2611618431517460702, guid: 53ada69b610dbc04b8b64a8dba607d85,
        type: 3}
      propertyPath: m_LocalEulerAnglesHint.x
      value: 0
      objectReference: {fileID: 0}
    - target: {fileID: 2611618431517460702, guid: 53ada69b610dbc04b8b64a8dba607d85,
        type: 3}
      propertyPath: m_LocalEulerAnglesHint.y
      value: 0
      objectReference: {fileID: 0}
    - target: {fileID: 2611618431517460702, guid: 53ada69b610dbc04b8b64a8dba607d85,
        type: 3}
      propertyPath: m_LocalEulerAnglesHint.z
      value: 0
      objectReference: {fileID: 0}
    - target: {fileID: 2611618431517460702, guid: 53ada69b610dbc04b8b64a8dba607d85,
        type: 3}
      propertyPath: m_AnchoredPosition.x
      value: -0.024993896
      objectReference: {fileID: 0}
    - target: {fileID: 2611618431517460702, guid: 53ada69b610dbc04b8b64a8dba607d85,
        type: 3}
      propertyPath: m_AnchoredPosition.y
      value: 0
      objectReference: {fileID: 0}
    - target: {fileID: 2611618431517460702, guid: 53ada69b610dbc04b8b64a8dba607d85,
        type: 3}
      propertyPath: m_SizeDelta.x
      value: 0.05001831
      objectReference: {fileID: 0}
    - target: {fileID: 2611618431517460702, guid: 53ada69b610dbc04b8b64a8dba607d85,
        type: 3}
      propertyPath: m_SizeDelta.y
      value: 0
      objectReference: {fileID: 0}
    - target: {fileID: 2611618431517460702, guid: 53ada69b610dbc04b8b64a8dba607d85,
        type: 3}
      propertyPath: m_AnchorMin.x
      value: 0.05
      objectReference: {fileID: 0}
    - target: {fileID: 2611618431517460702, guid: 53ada69b610dbc04b8b64a8dba607d85,
        type: 3}
      propertyPath: m_AnchorMin.y
      value: 0.94
      objectReference: {fileID: 0}
    - target: {fileID: 2611618431517460702, guid: 53ada69b610dbc04b8b64a8dba607d85,
        type: 3}
      propertyPath: m_Pivot.x
      value: 0.5
      objectReference: {fileID: 0}
    - target: {fileID: 2611618431517460702, guid: 53ada69b610dbc04b8b64a8dba607d85,
        type: 3}
      propertyPath: m_Pivot.y
      value: 0.5
      objectReference: {fileID: 0}
    - target: {fileID: 2611618431517460702, guid: 53ada69b610dbc04b8b64a8dba607d85,
        type: 3}
      propertyPath: m_AnchorMax.x
      value: 0.5
      objectReference: {fileID: 0}
    - target: {fileID: 2611618431517460702, guid: 53ada69b610dbc04b8b64a8dba607d85,
        type: 3}
      propertyPath: m_AnchorMax.y
      value: 0.99
      objectReference: {fileID: 0}
    - target: {fileID: 2611618431517460703, guid: 53ada69b610dbc04b8b64a8dba607d85,
        type: 3}
      propertyPath: m_Name
      value: HealthEnergySlider Variant
      objectReference: {fileID: 0}
    - target: {fileID: 4908416714445149640, guid: 53ada69b610dbc04b8b64a8dba607d85,
        type: 3}
      propertyPath: m_SizeDelta.x
      value: 30
      objectReference: {fileID: 0}
    - target: {fileID: 4908416714445149640, guid: 53ada69b610dbc04b8b64a8dba607d85,
        type: 3}
      propertyPath: m_SizeDelta.y
      value: 30
      objectReference: {fileID: 0}
    - target: {fileID: 4908416714445149640, guid: 53ada69b610dbc04b8b64a8dba607d85,
        type: 3}
      propertyPath: m_AnchoredPosition.x
      value: -10
      objectReference: {fileID: 0}
    - target: {fileID: 7143020055638588124, guid: 53ada69b610dbc04b8b64a8dba607d85,
        type: 3}
      propertyPath: m_Sprite
      value: 
      objectReference: {fileID: 21300000, guid: a3f525743a8bf71489cb96b8d1aa0fed,
        type: 3}
    - target: {fileID: 7143020055638588124, guid: 53ada69b610dbc04b8b64a8dba607d85,
        type: 3}
      propertyPath: m_Color.r
      value: 0.07386645
      objectReference: {fileID: 0}
    - target: {fileID: 7143020055638588124, guid: 53ada69b610dbc04b8b64a8dba607d85,
        type: 3}
      propertyPath: m_Color.g
      value: 0.990566
      objectReference: {fileID: 0}
    - target: {fileID: 7143020055638588124, guid: 53ada69b610dbc04b8b64a8dba607d85,
        type: 3}
      propertyPath: m_Color.b
      value: 0
      objectReference: {fileID: 0}
    m_RemovedComponents: []
  m_SourcePrefab: {fileID: 100100000, guid: 53ada69b610dbc04b8b64a8dba607d85, type: 3}
