%YAML 1.1
%TAG !u! tag:unity3d.com,2011:
--- !u!1001 &1638864533071151860
PrefabInstance:
  m_ObjectHideFlags: 0
  serializedVersion: 2
  m_Modification:
    m_TransformParent: {fileID: 0}
    m_Modifications:
    - target: {fileID: 5057961421567455340, guid: ebc974c87f6349446b91d7603ca1ed44,
        type: 3}
      propertyPath: weaponInfo
      value: 
      objectReference: {fileID: 11400000, guid: 7878522f62aa07f41aefc2296e3b7cf5,
        type: 2}
    - target: {fileID: 6739472100933986338, guid: ebc974c87f6349446b91d7603ca1ed44,
        type: 3}
      propertyPath: m_Name
      value: MissileLauncherLVL2
      objectReference: {fileID: 0}
    - target: {fileID: 6741594901951556322, guid: ebc974c87f6349446b91d7603ca1ed44,
        type: 3}
      propertyPath: m_LocalPosition.x
      value: -0
      objectReference: {fileID: 0}
    - target: {fileID: 6741594901951556322, guid: ebc974c87f6349446b91d7603ca1ed44,
        type: 3}
      propertyPath: m_LocalPosition.y
      value: 0
      objectReference: {fileID: 0}
    - target: {fileID: 6741594901951556322, guid: ebc974c87f6349446b91d7603ca1ed44,
        type: 3}
      propertyPath: m_LocalPosition.z
      value: 0
      objectReference: {fileID: 0}
    - target: {fileID: 6741594901951556322, guid: ebc974c87f6349446b91d7603ca1ed44,
        type: 3}
      propertyPath: m_LocalRotation.x
      value: 0
      objectReference: {fileID: 0}
    - target: {fileID: 6741594901951556322, guid: ebc974c87f6349446b91d7603ca1ed44,
        type: 3}
      propertyPath: m_LocalRotation.y
      value: -0
      objectReference: {fileID: 0}
    - target: {fileID: 6741594901951556322, guid: ebc974c87f6349446b91d7603ca1ed44,
        type: 3}
      propertyPath: m_LocalRotation.z
      value: -0
      objectReference: {fileID: 0}
    - target: {fileID: 6741594901951556322, guid: ebc974c87f6349446b91d7603ca1ed44,
        type: 3}
      propertyPath: m_LocalRotation.w
      value: 1
      objectReference: {fileID: 0}
    - target: {fileID: 6741594901951556322, guid: ebc974c87f6349446b91d7603ca1ed44,
        type: 3}
      propertyPath: m_RootOrder
      value: 0
      objectReference: {fileID: 0}
    - target: {fileID: 6741594901951556322, guid: ebc974c87f6349446b91d7603ca1ed44,
        type: 3}
      propertyPath: m_LocalEulerAnglesHint.x
      value: 0
      objectReference: {fileID: 0}
    - target: {fileID: 6741594901951556322, guid: ebc974c87f6349446b91d7603ca1ed44,
        type: 3}
      propertyPath: m_LocalEulerAnglesHint.y
      value: 0
      objectReference: {fileID: 0}
    - target: {fileID: 6741594901951556322, guid: ebc974c87f6349446b91d7603ca1ed44,
        type: 3}
      propertyPath: m_LocalEulerAnglesHint.z
      value: 0
      objectReference: {fileID: 0}
    m_RemovedComponents: []
  m_SourcePrefab: {fileID: 100100000, guid: ebc974c87f6349446b91d7603ca1ed44, type: 3}
