%YAML 1.1
%TAG !u! tag:unity3d.com,2011:
--- !u!114 &11400000
MonoBehaviour:
  m_ObjectHideFlags: 0
  m_CorrespondingSourceObject: {fileID: 0}
  m_PrefabInstance: {fileID: 0}
  m_PrefabAsset: {fileID: 0}
  m_GameObject: {fileID: 0}
  m_Enabled: 1
  m_EditorHideFlags: 0
  m_Script: {fileID: -819100962, guid: 554920e28aa36854ba78390be8d4ccf2, type: 3}
  m_Name: BehaviorDesignerGlobalVariables
  m_EditorClassIdentifier: 
  mVariableData:
    variableStartIndex: 00000000
    JSONSerialization: 
    fieldSerializationData:
      typeName: []
      fieldNameHash: f9be55564aaa52567707a104b55e65f0
      startIndex: 00000000010000000200000003000000
      dataPosition: 00000000290000002f00000030000000
      unityObjects: []
      byteData: 4265686176696f7244657369676e65722e52756e74696d652e53686172656447616d654f626a6563745461726765740101
      byteDataArray: 4265686176696f7244657369676e65722e52756e74696d652e53686172656447616d654f626a6563745461726765740101
  mVersion: 1.6.4
