%YAML 1.1
%TAG !u! tag:unity3d.com,2011:
--- !u!1045 &1
EditorBuildSettings:
  m_ObjectHideFlags: 0
  serializedVersion: 2
  m_Scenes:
  - enabled: 1
    path: Assets/Scenes/Menu.unity
    guid: 4a238ed9d94d2e5418f6f6088bad4da2
  - enabled: 1
    path: Assets/Scenes/TutorialScene.unity
    guid: 045260fbf700f3f478cc7c0b04ece79b
  - enabled: 1
    path: Assets/Scenes/Livello1.unity
    guid: faace23002f1fb24e8074bea392fee73
  - enabled: 1
    path: Assets/Scenes/IslandScene.unity
    guid: 295ed975c0277d94fbc672b7fea9e6f7
  m_configObjects: {}
