%YAML 1.1
%TAG !u! tag:unity3d.com,2011:
--- !u!114 &11400000
MonoBehaviour:
  m_ObjectHideFlags: 0
  m_CorrespondingSourceObject: {fileID: 0}
  m_PrefabInstance: {fileID: 0}
  m_PrefabAsset: {fileID: 0}
  m_GameObject: {fileID: 0}
  m_Enabled: 1
  m_EditorHideFlags: 0
  m_Script: {fileID: 11500000, guid: 267c775ff487b834e9a41cc9f2196751, type: 3}
  m_Name: LaserRifleLVL1
  m_EditorClassIdentifier: 
  weaponName: LaserRifle L1
  energyType: 1
  ammoWeight: 4
  fireRate: 1
  weaponSprite: {fileID: 21300000, guid: 63caaba1cbb4a7845a1ab1af163effee, type: 3}
  damage: 15
  range: 15
  capacity: 0
  magazineCapacity: 10
  animLayer: LaserRifleLayer
