%YAML 1.1
%TAG !u! tag:unity3d.com,2011:
--- !u!114 &11400000
MonoBehaviour:
  m_ObjectHideFlags: 0
  m_CorrespondingSourceObject: {fileID: 0}
  m_PrefabInstance: {fileID: 0}
  m_PrefabAsset: {fileID: 0}
  m_GameObject: {fileID: 0}
  m_Enabled: 1
  m_EditorHideFlags: 0
  m_Script: {fileID: 11500000, guid: d07fc397d8ecb5443b0aaf1551b10211, type: 3}
  m_Name: LaserRifleSound
  m_EditorClassIdentifier: 
  shootSound: {fileID: 8300000, guid: c5a7e97c15e83384082adc114b42634d, type: 3}
  shootVolume: 0.2
  shootPitch: 1.5
  reloadSound: {fileID: 0}
  reloadVolume: 1
  reloadPitch: 1
